detect_all_events function: cgmguru and iglu-compatible event preprocessing
…
cat("Note: The 'iglu' package is not available; vignette examples are skipped.\n")

iglu: episode_calculation

iglu::episode_calculation() identifies
hypo/hyperglycemia episodes.

iglu_episodes_5 <- iglu::episode_calculation(
  data = example_data_5_subject
)
print(iglu_episodes_5)
#> # A tibble: 35 × 7
#>    id        type  level avg_ep_per_day avg_ep_duration avg_ep_gl total_episodes
#>    <fct>     <chr> <chr>          <dbl>           <dbl>     <dbl>          <dbl>
#>  1 Subject 1 hypo  lv1           0.0899            35        68.6              1
#>  2 Subject 1 hypo  lv2           0                  0        NA                0
#>  3 Subject 1 hypo  exte…         0                  0        NA                0
#>  4 Subject 1 hyper lv1           1.44              80.3     200.              16
#>  5 Subject 1 hyper lv2           0.180             30       264.               2
#>  6 Subject 1 hypo  lv1_…         0.0899            35        68.6              1
#>  7 Subject 1 hyper lv1_…         1.26              79.6     195.              14
#>  8 Subject 2 hypo  lv1           0                  0        NA                0
#>  9 Subject 2 hypo  lv2           0                  0        NA                0
#> 10 Subject 2 hypo  exte…         0                  0        NA                0
#> # ℹ 25 more rows

iglu_episodes_hall <- iglu::episode_calculation(
  data = example_data_hall
)
print(iglu_episodes_hall)
#> # A tibble: 133 × 7
#>    id        type  level avg_ep_per_day avg_ep_duration avg_ep_gl total_episodes
#>    <chr>     <chr> <chr>          <dbl>           <dbl>     <dbl>          <dbl>
#>  1 1636-69-… hypo  lv1            0.468            15        68.1              3
#>  2 1636-69-… hypo  lv2            0                 0        NA                0
#>  3 1636-69-… hypo  exte…          0                 0        NA                0
#>  4 1636-69-… hyper lv1            0.623            57.5     201.               4
#>  5 1636-69-… hyper lv2            0                 0        NA                0
#>  6 1636-69-… hypo  lv1_…          0.468            15        68.1              3
#>  7 1636-69-… hyper lv1_…          0.623            57.5     201.               4
#>  8 1636-69-… hypo  lv1            0                 0        NA                0
#>  9 1636-69-… hypo  lv2            0                 0        NA                0
#> 10 1636-69-… hypo  exte…          0                 0        NA                0
#> # ℹ 123 more rows

cgmguru: detect_all_events

all_events_5 <- detect_all_events(example_data_5_subject)
print(all_events_5)
#> $events_long_df
#> # A tibble: 40 × 6
#>    id        type  level    event_count avg_ep_per_day avg_episode_duration_be…¹
#>    <chr>     <chr> <chr>          <int>          <dbl>                     <dbl>
#>  1 Subject 1 hypo  lv1                1           0.09                         0
#>  2 Subject 1 hypo  lv2                0           0                            0
#>  3 Subject 1 hypo  extended           0           0                            0
#>  4 Subject 1 hypo  lv1_excl           1           0.09                         0
#>  5 Subject 1 hyper lv1               16           1.44                         0
#>  6 Subject 1 hyper lv2                2           0.18                         0
#>  7 Subject 1 hyper extended           0           0                            0
#>  8 Subject 1 hyper lv1_excl          14           1.26                         0
#>  9 Subject 2 hypo  lv1                0           0                            0
#> 10 Subject 2 hypo  lv2                0           0                            0
#> # ℹ 30 more rows
#> # ℹ abbreviated name: ¹​avg_episode_duration_below_54
…
all_events_hall <- detect_all_events(example_data_hall)
print(all_events_hall)
#> $events_long_df
#> # A tibble: 152 × 6
#>    id          type  level    event_count avg_ep_per_day avg_episode_duration_…¹
#>    <chr>       <chr> <chr>          <int>          <dbl>                   <dbl>
#>  1 1636-69-001 hypo  lv1                3           0.47                       0
#>  2 1636-69-001 hypo  lv2                0           0                          0
#>  3 1636-69-001 hypo  extended           0           0                          0
#>  4 1636-69-001 hypo  lv1_excl           3           0.47                       0
#>  5 1636-69-001 hyper lv1                4           0.62                       0
#>  6 1636-69-001 hyper lv2                0           0                          0
#>  7 1636-69-001 hyper extended           0           0                          0
#>  8 1636-69-001 hyper lv1_excl           4           0.62                       0
#>  9 1636-69-026 hypo  lv1                0           0                          0
#> 10 1636-69-026 hypo  lv2                0           0                          0
#> # ℹ 142 more rows
#> # ℹ abbreviated name: ¹​avg_episode_duration_below_54
…
